output.txt
WARNING: processor.v:8: $readmemb(sample2.bnr): Not enough words in the file for the requested range [0:255].
VCD info: dumpfile dumpfile.vcd opened for output.
                   0 rstd = 0, clk = 0, pc = 00000000, ins = 0000000a, wra = 0a, reg1 = 00000000, reg2 = 00000000
                  10 rstd = 0, clk = 1, pc = 00000000, ins = 0000000a, wra = 0a, reg1 = 00000000, reg2 = 00000000
                  20 rstd = 0, clk = 0, pc = 00000000, ins = 0000000a, wra = 0a, reg1 = 00000000, reg2 = 00000000
                  30 rstd = 0, clk = 1, pc = 00000000, ins = 0000000a, wra = 0a, reg1 = 00000000, reg2 = 00000000
                  40 rstd = 0, clk = 0, pc = 00000000, ins = 0000000a, wra = 0a, reg1 = 00000000, reg2 = 00000000
                  50 rstd = 0, clk = 1, pc = 00000000, ins = 0000000a, wra = 0a, reg1 = 00000000, reg2 = 00000000
                  60 rstd = 0, clk = 0, pc = 00000000, ins = 0000000a, wra = 0a, reg1 = 00000000, reg2 = 00000000
                  70 rstd = 0, clk = 1, pc = 00000000, ins = 0000000a, wra = 0a, reg1 = 00000000, reg2 = 00000000
                  80 rstd = 0, clk = 0, pc = 00000000, ins = 0000000a, wra = 0a, reg1 = 00000000, reg2 = 00000000
                  90 rstd = 0, clk = 1, pc = 00000000, ins = 0000000a, wra = 0a, reg1 = 00000000, reg2 = 00000000
                 100 rstd = 1, clk = 0, pc = 00000000, ins = 0000000a, wra = 0a, reg1 = 00000000, reg2 = 00000000
                 110 rstd = 1, clk = 1, pc = 00000001, ins = 04080001, wra = 01, reg1 = 00000000, reg2 = xxxxxxxx
                 120 rstd = 1, clk = 0, pc = 00000001, ins = 04080001, wra = 01, reg1 = 00000000, reg2 = xxxxxxxx
                 130 rstd = 1, clk = 1, pc = 00000002, ins = 00084800, wra = 00, reg1 = 00000000, reg2 = xxxxxxxx
                 140 rstd = 1, clk = 0, pc = 00000002, ins = 00084800, wra = 00, reg1 = 00000000, reg2 = xxxxxxxx
                 150 rstd = 1, clk = 1, pc = 00000003, ins = 05080001, wra = 01, reg1 = xxxxxxxx, reg2 = xxxxxxxx
                 160 rstd = 1, clk = 0, pc = 00000003, ins = 05080001, wra = 01, reg1 = xxxxxxxx, reg2 = xxxxxxxx
                 170 rstd = 1, clk = 1, pc = 00000004, ins = 01094800, wra = 00, reg1 = xxxxxxxx, reg2 = xxxxxxxx
                 180 rstd = 1, clk = 0, pc = 00000004, ins = 01094800, wra = 00, reg1 = xxxxxxxx, reg2 = xxxxxxxx
                 190 rstd = 1, clk = 1, pc = 00000005, ins = 05080001, wra = 01, reg1 = xxxxxxxx, reg2 = xxxxxxxx
                 200 rstd = 1, clk = 0, pc = 00000005, ins = 05080001, wra = 01, reg1 = xxxxxxxx, reg2 = xxxxxxxx
                 210 rstd = 1, clk = 1, pc = 00000006, ins = 01094800, wra = 00, reg1 = xxxxxxxx, reg2 = xxxxxxxx
                 220 rstd = 1, clk = 0, pc = 00000006, ins = 01094800, wra = 00, reg1 = xxxxxxxx, reg2 = xxxxxxxx
                 230 rstd = 1, clk = 1, pc = 00000007, ins = 05080001, wra = 01, reg1 = xxxxxxxx, reg2 = xxxxxxxx
                 240 rstd = 1, clk = 0, pc = 00000007, ins = 05080001, wra = 01, reg1 = xxxxxxxx, reg2 = xxxxxxxx
                 250 rstd = 1, clk = 1, pc = 00000008, ins = 01094800, wra = 00, reg1 = xxxxxxxx, reg2 = xxxxxxxx
                 260 rstd = 1, clk = 0, pc = 00000008, ins = 01094800, wra = 00, reg1 = xxxxxxxx, reg2 = xxxxxxxx
                 270 rstd = 1, clk = 1, pc = 00000009, ins = 05080001, wra = 01, reg1 = xxxxxxxx, reg2 = xxxxxxxx
                 280 rstd = 1, clk = 0, pc = 00000009, ins = 05080001, wra = 01, reg1 = xxxxxxxx, reg2 = xxxxxxxx
                 290 rstd = 1, clk = 1, pc = 0000000a, ins = 01094800, wra = 00, reg1 = xxxxxxxx, reg2 = xxxxxxxx
                 300 rstd = 1, clk = 0, pc = 0000000a, ins = 01094800, wra = 00, reg1 = xxxxxxxx, reg2 = xxxxxxxx
                 310 rstd = 1, clk = 1, pc = 0000000b, ins = 05080001, wra = 01, reg1 = xxxxxxxx, reg2 = xxxxxxxx
                 320 rstd = 1, clk = 0, pc = 0000000b, ins = 05080001, wra = 01, reg1 = xxxxxxxx, reg2 = xxxxxxxx
                 330 rstd = 1, clk = 1, pc = 0000000c, ins = 01094800, wra = 00, reg1 = xxxxxxxx, reg2 = xxxxxxxx
                 340 rstd = 1, clk = 0, pc = 0000000c, ins = 01094800, wra = 00, reg1 = xxxxxxxx, reg2 = xxxxxxxx
                 350 rstd = 1, clk = 1, pc = 0000000d, ins = 05080001, wra = 01, reg1 = xxxxxxxx, reg2 = xxxxxxxx
                 360 rstd = 1, clk = 0, pc = 0000000d, ins = 05080001, wra = 01, reg1 = xxxxxxxx, reg2 = xxxxxxxx
                 370 rstd = 1, clk = 1, pc = 0000000e, ins = 01094800, wra = 00, reg1 = xxxxxxxx, reg2 = xxxxxxxx
                 380 rstd = 1, clk = 0, pc = 0000000e, ins = 01094800, wra = 00, reg1 = xxxxxxxx, reg2 = xxxxxxxx
                 390 rstd = 1, clk = 1, pc = 0000000f, ins = 05080001, wra = 01, reg1 = xxxxxxxx, reg2 = xxxxxxxx
                 400 rstd = 1, clk = 0, pc = 0000000f, ins = 05080001, wra = 01, reg1 = xxxxxxxx, reg2 = xxxxxxxx
                 410 rstd = 1, clk = 1, pc = 00000010, ins = 01094800, wra = 00, reg1 = xxxxxxxx, reg2 = xxxxxxxx
                 420 rstd = 1, clk = 0, pc = 00000010, ins = 01094800, wra = 00, reg1 = xxxxxxxx, reg2 = xxxxxxxx
                 430 rstd = 1, clk = 1, pc = 00000011, ins = 05080001, wra = 01, reg1 = xxxxxxxx, reg2 = xxxxxxxx
                 440 rstd = 1, clk = 0, pc = 00000011, ins = 05080001, wra = 01, reg1 = xxxxxxxx, reg2 = xxxxxxxx
                 450 rstd = 1, clk = 1, pc = 00000012, ins = 01094800, wra = 00, reg1 = xxxxxxxx, reg2 = xxxxxxxx
                 460 rstd = 1, clk = 0, pc = 00000012, ins = 01094800, wra = 00, reg1 = xxxxxxxx, reg2 = xxxxxxxx
                 470 rstd = 1, clk = 1, pc = 00000013, ins = 05080001, wra = 01, reg1 = xxxxxxxx, reg2 = xxxxxxxx
                 480 rstd = 1, clk = 0, pc = 00000013, ins = 05080001, wra = 01, reg1 = xxxxxxxx, reg2 = xxxxxxxx
                 490 rstd = 1, clk = 1, pc = 00000014, ins = 01094800, wra = 00, reg1 = xxxxxxxx, reg2 = xxxxxxxx
                 500 rstd = 1, clk = 0, pc = 00000014, ins = 01094800, wra = 00, reg1 = xxxxxxxx, reg2 = xxxxxxxx
                 510 rstd = 1, clk = 1, pc = 00000015, ins = xxxxxxxx, wra = xx, reg1 = xxxxxxxx, reg2 = xxxxxxxx
                 520 rstd = 1, clk = 0, pc = 00000015, ins = xxxxxxxx, wra = xx, reg1 = xxxxxxxx, reg2 = xxxxxxxx
                 530 rstd = 1, clk = 1, pc = 00000016, ins = xxxxxxxx, wra = xx, reg1 = xxxxxxxx, reg2 = xxxxxxxx
                 540 rstd = 1, clk = 0, pc = 00000016, ins = xxxxxxxx, wra = xx, reg1 = xxxxxxxx, reg2 = xxxxxxxx
                 550 rstd = 1, clk = 1, pc = 00000017, ins = xxxxxxxx, wra = xx, reg1 = xxxxxxxx, reg2 = xxxxxxxx
                 560 rstd = 1, clk = 0, pc = 00000017, ins = xxxxxxxx, wra = xx, reg1 = xxxxxxxx, reg2 = xxxxxxxx
                 570 rstd = 1, clk = 1, pc = 00000018, ins = xxxxxxxx, wra = xx, reg1 = xxxxxxxx, reg2 = xxxxxxxx
                 580 rstd = 1, clk = 0, pc = 00000018, ins = xxxxxxxx, wra = xx, reg1 = xxxxxxxx, reg2 = xxxxxxxx
                 590 rstd = 1, clk = 1, pc = 00000019, ins = xxxxxxxx, wra = xx, reg1 = xxxxxxxx, reg2 = xxxxxxxx
                 600 rstd = 1, clk = 0, pc = 00000019, ins = xxxxxxxx, wra = xx, reg1 = xxxxxxxx, reg2 = xxxxxxxx
                 610 rstd = 1, clk = 1, pc = 0000001a, ins = xxxxxxxx, wra = xx, reg1 = xxxxxxxx, reg2 = xxxxxxxx
                 620 rstd = 1, clk = 0, pc = 0000001a, ins = xxxxxxxx, wra = xx, reg1 = xxxxxxxx, reg2 = xxxxxxxx
                 630 rstd = 1, clk = 1, pc = 0000001b, ins = xxxxxxxx, wra = xx, reg1 = xxxxxxxx, reg2 = xxxxxxxx
                 640 rstd = 1, clk = 0, pc = 0000001b, ins = xxxxxxxx, wra = xx, reg1 = xxxxxxxx, reg2 = xxxxxxxx
                 650 rstd = 1, clk = 1, pc = 0000001c, ins = xxxxxxxx, wra = xx, reg1 = xxxxxxxx, reg2 = xxxxxxxx
                 660 rstd = 1, clk = 0, pc = 0000001c, ins = xxxxxxxx, wra = xx, reg1 = xxxxxxxx, reg2 = xxxxxxxx
                 670 rstd = 1, clk = 1, pc = 0000001d, ins = xxxxxxxx, wra = xx, reg1 = xxxxxxxx, reg2 = xxxxxxxx
                 680 rstd = 1, clk = 0, pc = 0000001d, ins = xxxxxxxx, wra = xx, reg1 = xxxxxxxx, reg2 = xxxxxxxx
                 690 rstd = 1, clk = 1, pc = 0000001e, ins = xxxxxxxx, wra = xx, reg1 = xxxxxxxx, reg2 = xxxxxxxx
                 700 rstd = 1, clk = 0, pc = 0000001e, ins = xxxxxxxx, wra = xx, reg1 = xxxxxxxx, reg2 = xxxxxxxx
                 710 rstd = 1, clk = 1, pc = 0000001f, ins = xxxxxxxx, wra = xx, reg1 = xxxxxxxx, reg2 = xxxxxxxx
                 720 rstd = 1, clk = 0, pc = 0000001f, ins = xxxxxxxx, wra = xx, reg1 = xxxxxxxx, reg2 = xxxxxxxx
                 730 rstd = 1, clk = 1, pc = 00000020, ins = xxxxxxxx, wra = xx, reg1 = xxxxxxxx, reg2 = xxxxxxxx
                 740 rstd = 1, clk = 0, pc = 00000020, ins = xxxxxxxx, wra = xx, reg1 = xxxxxxxx, reg2 = xxxxxxxx
                 750 rstd = 1, clk = 1, pc = 00000021, ins = xxxxxxxx, wra = xx, reg1 = xxxxxxxx, reg2 = xxxxxxxx
                 760 rstd = 1, clk = 0, pc = 00000021, ins = xxxxxxxx, wra = xx, reg1 = xxxxxxxx, reg2 = xxxxxxxx
                 770 rstd = 1, clk = 1, pc = 00000022, ins = xxxxxxxx, wra = xx, reg1 = xxxxxxxx, reg2 = xxxxxxxx
                 780 rstd = 1, clk = 0, pc = 00000022, ins = xxxxxxxx, wra = xx, reg1 = xxxxxxxx, reg2 = xxxxxxxx
                 790 rstd = 1, clk = 1, pc = 00000023, ins = xxxxxxxx, wra = xx, reg1 = xxxxxxxx, reg2 = xxxxxxxx
                 800 rstd = 1, clk = 0, pc = 00000023, ins = xxxxxxxx, wra = xx, reg1 = xxxxxxxx, reg2 = xxxxxxxx
                 810 rstd = 1, clk = 1, pc = 00000024, ins = xxxxxxxx, wra = xx, reg1 = xxxxxxxx, reg2 = xxxxxxxx
                 820 rstd = 1, clk = 0, pc = 00000024, ins = xxxxxxxx, wra = xx, reg1 = xxxxxxxx, reg2 = xxxxxxxx
                 830 rstd = 1, clk = 1, pc = 00000025, ins = xxxxxxxx, wra = xx, reg1 = xxxxxxxx, reg2 = xxxxxxxx
                 840 rstd = 1, clk = 0, pc = 00000025, ins = xxxxxxxx, wra = xx, reg1 = xxxxxxxx, reg2 = xxxxxxxx
                 850 rstd = 1, clk = 1, pc = 00000026, ins = xxxxxxxx, wra = xx, reg1 = xxxxxxxx, reg2 = xxxxxxxx
                 860 rstd = 1, clk = 0, pc = 00000026, ins = xxxxxxxx, wra = xx, reg1 = xxxxxxxx, reg2 = xxxxxxxx
                 870 rstd = 1, clk = 1, pc = 00000027, ins = xxxxxxxx, wra = xx, reg1 = xxxxxxxx, reg2 = xxxxxxxx
                 880 rstd = 1, clk = 0, pc = 00000027, ins = xxxxxxxx, wra = xx, reg1 = xxxxxxxx, reg2 = xxxxxxxx
                 890 rstd = 1, clk = 1, pc = 00000028, ins = xxxxxxxx, wra = xx, reg1 = xxxxxxxx, reg2 = xxxxxxxx
                 900 rstd = 1, clk = 0, pc = 00000028, ins = xxxxxxxx, wra = xx, reg1 = xxxxxxxx, reg2 = xxxxxxxx
                 910 rstd = 1, clk = 1, pc = 00000029, ins = xxxxxxxx, wra = xx, reg1 = xxxxxxxx, reg2 = xxxxxxxx
                 920 rstd = 1, clk = 0, pc = 00000029, ins = xxxxxxxx, wra = xx, reg1 = xxxxxxxx, reg2 = xxxxxxxx
                 930 rstd = 1, clk = 1, pc = 0000002a, ins = xxxxxxxx, wra = xx, reg1 = xxxxxxxx, reg2 = xxxxxxxx
                 940 rstd = 1, clk = 0, pc = 0000002a, ins = xxxxxxxx, wra = xx, reg1 = xxxxxxxx, reg2 = xxxxxxxx
                 950 rstd = 1, clk = 1, pc = 0000002b, ins = xxxxxxxx, wra = xx, reg1 = xxxxxxxx, reg2 = xxxxxxxx
                 960 rstd = 1, clk = 0, pc = 0000002b, ins = xxxxxxxx, wra = xx, reg1 = xxxxxxxx, reg2 = xxxxxxxx
                 970 rstd = 1, clk = 1, pc = 0000002c, ins = xxxxxxxx, wra = xx, reg1 = xxxxxxxx, reg2 = xxxxxxxx
                 980 rstd = 1, clk = 0, pc = 0000002c, ins = xxxxxxxx, wra = xx, reg1 = xxxxxxxx, reg2 = xxxxxxxx
                 990 rstd = 1, clk = 1, pc = 0000002d, ins = xxxxxxxx, wra = xx, reg1 = xxxxxxxx, reg2 = xxxxxxxx
                1000 rstd = 1, clk = 0, pc = 0000002d, ins = xxxxxxxx, wra = xx, reg1 = xxxxxxxx, reg2 = xxxxxxxx
                1010 rstd = 1, clk = 1, pc = 0000002e, ins = xxxxxxxx, wra = xx, reg1 = xxxxxxxx, reg2 = xxxxxxxx
                1020 rstd = 1, clk = 0, pc = 0000002e, ins = xxxxxxxx, wra = xx, reg1 = xxxxxxxx, reg2 = xxxxxxxx
                1030 rstd = 1, clk = 1, pc = 0000002f, ins = xxxxxxxx, wra = xx, reg1 = xxxxxxxx, reg2 = xxxxxxxx
                1040 rstd = 1, clk = 0, pc = 0000002f, ins = xxxxxxxx, wra = xx, reg1 = xxxxxxxx, reg2 = xxxxxxxx
                1050 rstd = 1, clk = 1, pc = 00000030, ins = xxxxxxxx, wra = xx, reg1 = xxxxxxxx, reg2 = xxxxxxxx
                1060 rstd = 1, clk = 0, pc = 00000030, ins = xxxxxxxx, wra = xx, reg1 = xxxxxxxx, reg2 = xxxxxxxx
                1070 rstd = 1, clk = 1, pc = 00000031, ins = xxxxxxxx, wra = xx, reg1 = xxxxxxxx, reg2 = xxxxxxxx
                1080 rstd = 1, clk = 0, pc = 00000031, ins = xxxxxxxx, wra = xx, reg1 = xxxxxxxx, reg2 = xxxxxxxx
                1090 rstd = 1, clk = 1, pc = 00000032, ins = xxxxxxxx, wra = xx, reg1 = xxxxxxxx, reg2 = xxxxxxxx
                1100 rstd = 1, clk = 0, pc = 00000032, ins = xxxxxxxx, wra = xx, reg1 = xxxxxxxx, reg2 = xxxxxxxx
